SIM/transcript
# vsim -vopt async_fifo_top -c -do "run -all; exit" "+ASYNC_FIFO_B2B_WRITE_READ_TEST" 
# Start time: 15:52:49 on Feb 17,2025
# ** Note: (vsim-8009) Loading existing optimized design _opt1
# //  Questa Sim-64
# //  Version 10.7c win64 Aug 18 2018
# //
# //  Copyright 1991-2018 Mentor Graphics Corporation
# //  All Rights Reserved.
# //
# //  QuestaSim and its associated documentation contain trade
# //  secrets and commercial or financial information that are the property of
# //  Mentor Graphics Corporation and are privileged, confidential,
# //  and exempt from disclosure under the Freedom of Information Act,
# //  5 U.S.C. Section 552. Furthermore, this information
# //  is prohibited from disclosure under the Trade Secrets Act,
# //  18 U.S.C. Section 1905.
# //
# Loading sv_std.std
# Loading work.async_fifo_interface(fast)
# Loading work.async_fifo_pkg(fast)
# Loading work.async_fifo_top_sv_unit(fast)
# Loading work.async_fifo_top(fast)
# Loading work.async_fifo_interface(fast)
# Loading work.asynch_fifo_dut(fast)
# Loading work.sync_r2w(fast)
# Loading work.sync_w2r(fast)
# Loading work.fifomem(fast)
# Loading work.rptr_empty(fast)
# Loading work.wptr_full(fast)
# run -all
# WCLK_T/2 = 50.00
# RCLK_T/2 = 58.82
# *************************************************************************
# 	ASYNC_FIFO_B2B_WRITE_READ_TEST is Running
# *************************************************************************
# async_fifo_b2b_write_read_test, Inputs: wdata = 103, rdata = x, winc = 1, rinc = 0
# async_fifo_b2b_write_read_test, Inputs: wdata = 0, rdata = x, winc = 0, rinc = 1
# async_fifo_b2b_write_read_test, Inputs: wdata = 213, rdata = x, winc = 1, rinc = 0
# async_fifo_b2b_write_read_test, Inputs: wdata = 0, rdata = x, winc = 0, rinc = 1
# async_fifo_b2b_write_read_test, Inputs: wdata = 199, rdata = x, winc = 1, rinc = 0
# async_fifo_b2b_write_read_test, Inputs: wdata = 0, rdata = x, winc = 0, rinc = 1
# async_fifo_b2b_write_read_test, Inputs: wdata = 144, rdata = x, winc = 1, rinc = 0
# async_fifo_b2b_write_read_test, Inputs: wdata = 0, rdata = x, winc = 0, rinc = 1
# async_fifo_b2b_write_read_test, Inputs: wdata = 27, rdata = x, winc = 1, rinc = 0
# async_fifo_b2b_write_read_test, Inputs: wdata = 0, rdata = x, winc = 0, rinc = 1
# async_fifo_b2b_write_read_test, Inputs: wdata = 214, rdata = x, winc = 1, rinc = 0
# async_fifo_b2b_write_read_test, Inputs: wdata = 0, rdata = x, winc = 0, rinc = 1
# async_fifo_b2b_write_read_test, Inputs: wdata = 45, rdata = x, winc = 1, rinc = 0
# async_fifo_b2b_write_read_test, Inputs: wdata = 0, rdata = x, winc = 0, rinc = 1
# async_fifo_b2b_write_read_test, Inputs: wdata = 236, rdata = x, winc = 1, rinc = 0
# async_fifo_b2b_write_read_test, Inputs: wdata = 0, rdata = x, winc = 0, rinc = 1
# async_fifo_b2b_write_read_test, Inputs: wdata = 89, rdata = x, winc = 1, rinc = 0
# async_fifo_b2b_write_read_test, Inputs: wdata = 0, rdata = x, winc = 0, rinc = 1
# ||MATCHED|| At Time = 235296 => SCOREBOARD PASSED: rdata = x == exp_rdata = 103
# ||MATCHED|| At Time = 411768 => SCOREBOARD PASSED: rdata = x == exp_rdata = 213
# ||MIS-MATCHED|| At Time = 529416 => SCOREBOARD FAILED: rdata = 213 != exp_rdata = 199
# ||MIS-MATCHED|| At Time = 647064 => SCOREBOARD FAILED: rdata = 199 != exp_rdata = 144
# ||MIS-MATCHED|| At Time = 705888 => SCOREBOARD FAILED: rdata = 199 != exp_rdata = 27
# ||MIS-MATCHED|| At Time = 823536 => SCOREBOARD FAILED: rdata = 144 != exp_rdata = 214
# ||MIS-MATCHED|| At Time = 941184 => SCOREBOARD FAILED: rdata = 27 != exp_rdata = 45
# ||MIS-MATCHED|| At Time = 1000008 => SCOREBOARD FAILED: rdata = 27 != exp_rdata = 236
# ||MIS-MATCHED|| At Time = 1058832 => SCOREBOARD FAILED: rdata = 214 != exp_rdata = 89
# ** Note: $finish    : D:/PSU/Winter 2025/Fundamentals of Pre-Silicon Validation/Final Project/Final Project/ece593w25_6_asynchronous_fifo_M2/SIM/../TOP/async_fifo_top.sv(82)
#    Time: 5117648 ps  Iteration: 0  Instance: /async_fifo_top
# End time: 15:52:50 on Feb 17,2025, Elapsed time: 0:00:01
# Errors: 0, Warnings: 0
