SIM/transcript
# vsim -coverage -vopt async_fifo_top -c -do "coverage save -onexit async_fifo_write_read_max_data_range_test_cov.ucdb; run -all; exit" "+ASYNC_FIFO_WRITE_READ_MAX_DATA_RANGE_TEST" 
# Start time: 18:27:28 on Feb 18,2025
# ** Note: (vsim-8009) Loading existing optimized design _opt9
# //  Questa Sim-64
# //  Version 10.7c win64 Aug 18 2018
# //
# //  Copyright 1991-2018 Mentor Graphics Corporation
# //  All Rights Reserved.
# //
# //  QuestaSim and its associated documentation contain trade
# //  secrets and commercial or financial information that are the property of
# //  Mentor Graphics Corporation and are privileged, confidential,
# //  and exempt from disclosure under the Freedom of Information Act,
# //  5 U.S.C. Section 552. Furthermore, this information
# //  is prohibited from disclosure under the Trade Secrets Act,
# //  18 U.S.C. Section 1905.
# //
# Loading sv_std.std
# Loading work.async_fifo_interface(fast)
# Loading work.async_fifo_pkg(fast)
# Loading work.async_fifo_top_sv_unit(fast)
# Loading work.async_fifo_top(fast)
# Loading work.async_fifo_interface(fast)
# Loading work.asynch_fifo_dut(fast)
# Loading work.sync_r2w(fast)
# Loading work.sync_w2r(fast)
# Loading work.fifomem(fast)
# Loading work.rptr_empty(fast)
# Loading work.wptr_full(fast)
# coverage save -onexit async_fifo_write_read_max_data_range_test_cov.ucdb
#  run -all
# WCLK_T/2 = 50.00
# RCLK_T/2 = 58.82
# *************************************************************************
# 	ASYNC_FIFO_WRITE_READ_MAX_DATA_RANGE_TEST is Running
# *************************************************************************
# async_fifo_write_read_test, Inputs: wdata = 255, rdata = x, winc = 1, rinc = 0
# async_fifo_write_read_test, Inputs: wdata = 255, rdata = x, winc = 1, rinc = 0
# async_fifo_write_read_test, Inputs: wdata = 255, rdata = x, winc = 1, rinc = 0
# async_fifo_write_read_test, Inputs: wdata = 255, rdata = x, winc = 1, rinc = 0
# async_fifo_write_read_test, Inputs: wdata = 255, rdata = x, winc = 1, rinc = 0
# async_fifo_write_read_test, Inputs: wdata = 255, rdata = x, winc = 1, rinc = 0
# async_fifo_write_read_test, Inputs: wdata = 255, rdata = x, winc = 1, rinc = 0
# async_fifo_write_read_test, Inputs: wdata = 255, rdata = x, winc = 1, rinc = 0
# async_fifo_write_read_test, Inputs: wdata = 255, rdata = x, winc = 1, rinc = 0
# async_fifo_write_read_test, Inputs: wdata = 255, rdata = x, winc = 1, rinc = 0
# async_fifo_write_read_test, Inputs: wdata = 255, rdata = x, winc = 1, rinc = 0
# async_fifo_write_read_test, Inputs: wdata = 255, rdata = x, winc = 1, rinc = 0
# async_fifo_write_read_test, Inputs: wdata = 255, rdata = x, winc = 1, rinc = 0
# async_fifo_write_read_test, Inputs: wdata = 255, rdata = x, winc = 1, rinc = 0
# async_fifo_write_read_test, Inputs: wdata = 255, rdata = x, winc = 1, rinc = 0
# async_fifo_write_read_test, Inputs: wdata = 255, rdata = x, winc = 1, rinc = 0
# async_fifo_write_read_test, Inputs: wdata = 0, rdata = x, winc = 0, rinc = 1
# async_fifo_write_read_test, Inputs: wdata = 0, rdata = x, winc = 0, rinc = 1
# async_fifo_write_read_test, Inputs: wdata = 0, rdata = x, winc = 0, rinc = 1
# async_fifo_write_read_test, Inputs: wdata = 0, rdata = x, winc = 0, rinc = 1
# async_fifo_write_read_test, Inputs: wdata = 0, rdata = x, winc = 0, rinc = 1
# async_fifo_write_read_test, Inputs: wdata = 0, rdata = x, winc = 0, rinc = 1
# async_fifo_write_read_test, Inputs: wdata = 0, rdata = x, winc = 0, rinc = 1
# async_fifo_write_read_test, Inputs: wdata = 0, rdata = x, winc = 0, rinc = 1
# async_fifo_write_read_test, Inputs: wdata = 0, rdata = x, winc = 0, rinc = 1
# async_fifo_write_read_test, Inputs: wdata = 0, rdata = x, winc = 0, rinc = 1
# async_fifo_write_read_test, Inputs: wdata = 0, rdata = x, winc = 0, rinc = 1
# async_fifo_write_read_test, Inputs: wdata = 0, rdata = x, winc = 0, rinc = 1
# async_fifo_write_read_test, Inputs: wdata = 0, rdata = x, winc = 0, rinc = 1
# async_fifo_write_read_test, Inputs: wdata = 0, rdata = x, winc = 0, rinc = 1
# async_fifo_write_read_test, Inputs: wdata = 0, rdata = x, winc = 0, rinc = 1
# async_fifo_write_read_test, Inputs: wdata = 0, rdata = x, winc = 0, rinc = 1
# Driver to Interface: , Inputs: wdata = 255, rdata = x, winc = 1, rinc = 0
# Interface to Monitor: , Inputs: wdata = x, rdata = x, winc = x, rinc = x
# Driver to Interface: , Inputs: wdata = 255, rdata = x, winc = 1, rinc = 0
# Interface to Monitor: , Inputs: wdata = 255, rdata = x, winc = 1, rinc = x
# Interface to Monitor: , Inputs: wdata = 255, rdata = 0, winc = 1, rinc = x
# Driver to Interface: , Inputs: wdata = 255, rdata = x, winc = 1, rinc = 0
# Driver to Interface: , Inputs: wdata = 255, rdata = x, winc = 1, rinc = 0
# Interface to Monitor: , Inputs: wdata = 255, rdata = 0, winc = 1, rinc = x
# Interface to Monitor: , Inputs: wdata = 255, rdata = 0, winc = 1, rinc = 0
# Driver to Interface: , Inputs: wdata = 255, rdata = x, winc = 1, rinc = 0
# Driver to Interface: , Inputs: wdata = 255, rdata = x, winc = 1, rinc = 0
# Interface to Monitor: , Inputs: wdata = 255, rdata = 0, winc = 1, rinc = 0
# Interface to Monitor: , Inputs: wdata = 255, rdata = 0, winc = 1, rinc = 0
# Driver to Interface: , Inputs: wdata = 255, rdata = x, winc = 1, rinc = 0
# Driver to Interface: , Inputs: wdata = 255, rdata = x, winc = 1, rinc = 0
# Interface to Monitor: , Inputs: wdata = 255, rdata = 0, winc = 1, rinc = 0
# Driver to Interface: , Inputs: wdata = 255, rdata = x, winc = 1, rinc = 0
# Driver to Interface: , Inputs: wdata = 255, rdata = x, winc = 1, rinc = 0
# Interface to Monitor: , Inputs: wdata = 255, rdata = 0, winc = 1, rinc = 0
# Interface to Monitor: , Inputs: wdata = 255, rdata = 0, winc = 1, rinc = 0
# Driver to Interface: , Inputs: wdata = 255, rdata = x, winc = 1, rinc = 0
# Driver to Interface: , Inputs: wdata = 255, rdata = x, winc = 1, rinc = 0
# Interface to Monitor: , Inputs: wdata = 255, rdata = 0, winc = 1, rinc = 0
# Interface to Monitor: , Inputs: wdata = 255, rdata = 0, winc = 1, rinc = 0
# Driver to Interface: , Inputs: wdata = 255, rdata = x, winc = 1, rinc = 0
# Driver to Interface: , Inputs: wdata = 255, rdata = x, winc = 1, rinc = 0
# Interface to Monitor: , Inputs: wdata = 255, rdata = 0, winc = 1, rinc = 0
# Interface to Monitor: , Inputs: wdata = 255, rdata = 0, winc = 1, rinc = 0
# Driver to Interface: , Inputs: wdata = 255, rdata = x, winc = 1, rinc = 0
# Interface to Monitor: , Inputs: wdata = 255, rdata = 0, winc = 1, rinc = 0
# Interface to Monitor: , Inputs: wdata = 255, rdata = 0, winc = 1, rinc = 0
# Driver to Interface: , Inputs: wdata = 255, rdata = x, winc = 1, rinc = 0
# Driver to Interface: , Inputs: wdata = 0, rdata = x, winc = 0, rinc = 1
# Interface to Monitor: , Inputs: wdata = 0, rdata = 0, winc = 0, rinc = 0
# Interface to Monitor: , Inputs: wdata = 0, rdata = 0, winc = 0, rinc = 0
# Driver to Interface: , Inputs: wdata = 0, rdata = x, winc = 0, rinc = 1
# Driver to Interface: , Inputs: wdata = 0, rdata = x, winc = 0, rinc = 1
# Interface to Monitor: , Inputs: wdata = 0, rdata = 0, winc = 0, rinc = 0
# Interface to Monitor: , Inputs: wdata = 0, rdata = 255, winc = 0, rinc = 1
# Driver to Interface: , Inputs: wdata = 0, rdata = x, winc = 0, rinc = 1
# ------------------------------------------------------------------------------------------------------
# ||MATCHED|| At Time = 647064 => SCOREBOARD PASSED: rdata = 255 == exp_rdata = 255
# ------------------------------------------------------------------------------------------------------
# Driver to Interface: , Inputs: wdata = 0, rdata = x, winc = 0, rinc = 1
# Interface to Monitor: , Inputs: wdata = 0, rdata = 255, winc = 0, rinc = 1
# Driver to Interface: , Inputs: wdata = 0, rdata = x, winc = 0, rinc = 1
# Driver to Interface: , Inputs: wdata = 0, rdata = x, winc = 0, rinc = 1
# Interface to Monitor: , Inputs: wdata = 0, rdata = 255, winc = 0, rinc = 1
# ------------------------------------------------------------------------------------------------------
# ||MATCHED|| At Time = 705888 => SCOREBOARD PASSED: rdata = 255 == exp_rdata = 255
# ------------------------------------------------------------------------------------------------------
# Interface to Monitor: , Inputs: wdata = 0, rdata = 255, winc = 0, rinc = 1
# Driver to Interface: , Inputs: wdata = 0, rdata = x, winc = 0, rinc = 1
# Driver to Interface: , Inputs: wdata = 0, rdata = x, winc = 0, rinc = 1
# Interface to Monitor: , Inputs: wdata = 0, rdata = 255, winc = 0, rinc = 1
# ------------------------------------------------------------------------------------------------------
# ||MATCHED|| At Time = 764712 => SCOREBOARD PASSED: rdata = 255 == exp_rdata = 255
# ------------------------------------------------------------------------------------------------------
# Interface to Monitor: , Inputs: wdata = 0, rdata = 255, winc = 0, rinc = 1
# Driver to Interface: , Inputs: wdata = 0, rdata = x, winc = 0, rinc = 1
# Driver to Interface: , Inputs: wdata = 0, rdata = x, winc = 0, rinc = 1
# Interface to Monitor: , Inputs: wdata = 0, rdata = 255, winc = 0, rinc = 1
# ------------------------------------------------------------------------------------------------------
# ||MATCHED|| At Time = 823536 => SCOREBOARD PASSED: rdata = 255 == exp_rdata = 255
# ------------------------------------------------------------------------------------------------------
# Interface to Monitor: , Inputs: wdata = 0, rdata = 255, winc = 0, rinc = 1
# Driver to Interface: , Inputs: wdata = 0, rdata = x, winc = 0, rinc = 1
# Interface to Monitor: , Inputs: wdata = 0, rdata = 255, winc = 0, rinc = 1
# Interface to Monitor: , Inputs: wdata = 0, rdata = 255, winc = 0, rinc = 1
# Driver to Interface: , Inputs: wdata = 0, rdata = x, winc = 0, rinc = 1
# ------------------------------------------------------------------------------------------------------
# ||MATCHED|| At Time = 882360 => SCOREBOARD PASSED: rdata = 255 == exp_rdata = 255
# ------------------------------------------------------------------------------------------------------
# Driver to Interface: , Inputs: wdata = 0, rdata = x, winc = 0, rinc = 1
# Interface to Monitor: , Inputs: wdata = 0, rdata = 255, winc = 0, rinc = 1
# Interface to Monitor: , Inputs: wdata = 0, rdata = 255, winc = 0, rinc = 1
# Driver to Interface: , Inputs: wdata = 0, rdata = x, winc = 0, rinc = 1
# ------------------------------------------------------------------------------------------------------
# ||MATCHED|| At Time = 941184 => SCOREBOARD PASSED: rdata = 255 == exp_rdata = 255
# ------------------------------------------------------------------------------------------------------
# Driver to Interface: , Inputs: wdata = 0, rdata = x, winc = 0, rinc = 1
# Interface to Monitor: , Inputs: wdata = 0, rdata = 255, winc = 0, rinc = 1
# Interface to Monitor: , Inputs: wdata = 0, rdata = 255, winc = 0, rinc = 1
# ------------------------------------------------------------------------------------------------------
# ||MATCHED|| At Time = 1000008 => SCOREBOARD PASSED: rdata = 255 == exp_rdata = 255
# ------------------------------------------------------------------------------------------------------
# Interface to Monitor: , Inputs: wdata = 0, rdata = 255, winc = 0, rinc = 1
# Interface to Monitor: , Inputs: wdata = 0, rdata = 255, winc = 0, rinc = 1
# ------------------------------------------------------------------------------------------------------
# ||MATCHED|| At Time = 1058832 => SCOREBOARD PASSED: rdata = 255 == exp_rdata = 255
# ------------------------------------------------------------------------------------------------------
# Interface to Monitor: , Inputs: wdata = 0, rdata = 255, winc = 0, rinc = 1
# Interface to Monitor: , Inputs: wdata = 0, rdata = 0, winc = 0, rinc = 1
# ---------------------------------------------------------------
#              1117656 -- ERROR : FIFO EMPTY --> We can't Read
# ---------------------------------------------------------------
# Interface to Monitor: , Inputs: wdata = 0, rdata = 0, winc = 0, rinc = 1
# Interface to Monitor: , Inputs: wdata = 0, rdata = 0, winc = 0, rinc = 1
# Interface to Monitor: , Inputs: wdata = 0, rdata = 0, winc = 0, rinc = 1
# Interface to Monitor: , Inputs: wdata = 0, rdata = 0, winc = 0, rinc = 1
# Interface to Monitor: , Inputs: wdata = 0, rdata = 0, winc = 0, rinc = 1
# Interface to Monitor: , Inputs: wdata = 0, rdata = 0, winc = 0, rinc = 1
# Interface to Monitor: , Inputs: wdata = 0, rdata = 0, winc = 0, rinc = 1
# Interface to Monitor: , Inputs: wdata = 0, rdata = 0, winc = 0, rinc = 1
# Interface to Monitor: , Inputs: wdata = 0, rdata = 0, winc = 0, rinc = 1
# Interface to Monitor: , Inputs: wdata = 0, rdata = 0, winc = 0, rinc = 1
# Interface to Monitor: , Inputs: wdata = 0, rdata = 0, winc = 0, rinc = 1
# Interface to Monitor: , Inputs: wdata = 0, rdata = 0, winc = 0, rinc = 1
# Interface to Monitor: , Inputs: wdata = 0, rdata = 0, winc = 0, rinc = 1
# Interface to Monitor: , Inputs: wdata = 0, rdata = 0, winc = 0, rinc = 1
# Interface to Monitor: , Inputs: wdata = 0, rdata = 0, winc = 0, rinc = 1
# Interface to Monitor: , Inputs: wdata = 0, rdata = 0, winc = 0, rinc = 1
# Interface to Monitor: , Inputs: wdata = 0, rdata = 0, winc = 0, rinc = 1
# Interface to Monitor: , Inputs: wdata = 0, rdata = 0, winc = 0, rinc = 1
# Interface to Monitor: , Inputs: wdata = 0, rdata = 0, winc = 0, rinc = 1
# Interface to Monitor: , Inputs: wdata = 0, rdata = 0, winc = 0, rinc = 1
# Interface to Monitor: , Inputs: wdata = 0, rdata = 0, winc = 0, rinc = 1
# Interface to Monitor: , Inputs: wdata = 0, rdata = 0, winc = 0, rinc = 1
# Interface to Monitor: , Inputs: wdata = 0, rdata = 0, winc = 0, rinc = 1
# Interface to Monitor: , Inputs: wdata = 0, rdata = 0, winc = 0, rinc = 1
# Interface to Monitor: , Inputs: wdata = 0, rdata = 0, winc = 0, rinc = 1
# Interface to Monitor: , Inputs: wdata = 0, rdata = 0, winc = 0, rinc = 1
# Interface to Monitor: , Inputs: wdata = 0, rdata = 0, winc = 0, rinc = 1
# Interface to Monitor: , Inputs: wdata = 0, rdata = 0, winc = 0, rinc = 1
# Interface to Monitor: , Inputs: wdata = 0, rdata = 0, winc = 0, rinc = 1
# Interface to Monitor: , Inputs: wdata = 0, rdata = 0, winc = 0, rinc = 1
# Interface to Monitor: , Inputs: wdata = 0, rdata = 0, winc = 0, rinc = 1
# Interface to Monitor: , Inputs: wdata = 0, rdata = 0, winc = 0, rinc = 1
# Interface to Monitor: , Inputs: wdata = 0, rdata = 0, winc = 0, rinc = 1
# Interface to Monitor: , Inputs: wdata = 0, rdata = 0, winc = 0, rinc = 1
# Interface to Monitor: , Inputs: wdata = 0, rdata = 0, winc = 0, rinc = 1
# Interface to Monitor: , Inputs: wdata = 0, rdata = 0, winc = 0, rinc = 1
# Interface to Monitor: , Inputs: wdata = 0, rdata = 0, winc = 0, rinc = 1
# Interface to Monitor: , Inputs: wdata = 0, rdata = 0, winc = 0, rinc = 1
# Interface to Monitor: , Inputs: wdata = 0, rdata = 0, winc = 0, rinc = 1
# Interface to Monitor: , Inputs: wdata = 0, rdata = 0, winc = 0, rinc = 1
# Interface to Monitor: , Inputs: wdata = 0, rdata = 0, winc = 0, rinc = 1
# Interface to Monitor: , Inputs: wdata = 0, rdata = 0, winc = 0, rinc = 1
# Interface to Monitor: , Inputs: wdata = 0, rdata = 0, winc = 0, rinc = 1
# Interface to Monitor: , Inputs: wdata = 0, rdata = 0, winc = 0, rinc = 1
# Interface to Monitor: , Inputs: wdata = 0, rdata = 0, winc = 0, rinc = 1
# Interface to Monitor: , Inputs: wdata = 0, rdata = 0, winc = 0, rinc = 1
# Interface to Monitor: , Inputs: wdata = 0, rdata = 0, winc = 0, rinc = 1
# Interface to Monitor: , Inputs: wdata = 0, rdata = 0, winc = 0, rinc = 1
# Interface to Monitor: , Inputs: wdata = 0, rdata = 0, winc = 0, rinc = 1
# Interface to Monitor: , Inputs: wdata = 0, rdata = 0, winc = 0, rinc = 1
# Interface to Monitor: , Inputs: wdata = 0, rdata = 0, winc = 0, rinc = 1
# Interface to Monitor: , Inputs: wdata = 0, rdata = 0, winc = 0, rinc = 1
# Interface to Monitor: , Inputs: wdata = 0, rdata = 0, winc = 0, rinc = 1
# Interface to Monitor: , Inputs: wdata = 0, rdata = 0, winc = 0, rinc = 1
# Interface to Monitor: , Inputs: wdata = 0, rdata = 0, winc = 0, rinc = 1
# Interface to Monitor: , Inputs: wdata = 0, rdata = 0, winc = 0, rinc = 1
# Interface to Monitor: , Inputs: wdata = 0, rdata = 0, winc = 0, rinc = 1
# Interface to Monitor: , Inputs: wdata = 0, rdata = 0, winc = 0, rinc = 1
# Interface to Monitor: , Inputs: wdata = 0, rdata = 0, winc = 0, rinc = 1
# Interface to Monitor: , Inputs: wdata = 0, rdata = 0, winc = 0, rinc = 1
# Interface to Monitor: , Inputs: wdata = 0, rdata = 0, winc = 0, rinc = 1
# Interface to Monitor: , Inputs: wdata = 0, rdata = 0, winc = 0, rinc = 1
# Interface to Monitor: , Inputs: wdata = 0, rdata = 0, winc = 0, rinc = 1
# Interface to Monitor: , Inputs: wdata = 0, rdata = 0, winc = 0, rinc = 1
# Interface to Monitor: , Inputs: wdata = 0, rdata = 0, winc = 0, rinc = 1
# Interface to Monitor: , Inputs: wdata = 0, rdata = 0, winc = 0, rinc = 1
# Interface to Monitor: , Inputs: wdata = 0, rdata = 0, winc = 0, rinc = 1
# Interface to Monitor: , Inputs: wdata = 0, rdata = 0, winc = 0, rinc = 1
# Interface to Monitor: , Inputs: wdata = 0, rdata = 0, winc = 0, rinc = 1
# Interface to Monitor: , Inputs: wdata = 0, rdata = 0, winc = 0, rinc = 1
# Interface to Monitor: , Inputs: wdata = 0, rdata = 0, winc = 0, rinc = 1
# Interface to Monitor: , Inputs: wdata = 0, rdata = 0, winc = 0, rinc = 1
# Interface to Monitor: , Inputs: wdata = 0, rdata = 0, winc = 0, rinc = 1
# Interface to Monitor: , Inputs: wdata = 0, rdata = 0, winc = 0, rinc = 1
# Interface to Monitor: , Inputs: wdata = 0, rdata = 0, winc = 0, rinc = 1
# Interface to Monitor: , Inputs: wdata = 0, rdata = 0, winc = 0, rinc = 1
# Interface to Monitor: , Inputs: wdata = 0, rdata = 0, winc = 0, rinc = 1
# Interface to Monitor: , Inputs: wdata = 0, rdata = 0, winc = 0, rinc = 1
# Interface to Monitor: , Inputs: wdata = 0, rdata = 0, winc = 0, rinc = 1
# Interface to Monitor: , Inputs: wdata = 0, rdata = 0, winc = 0, rinc = 1
# Interface to Monitor: , Inputs: wdata = 0, rdata = 0, winc = 0, rinc = 1
# Interface to Monitor: , Inputs: wdata = 0, rdata = 0, winc = 0, rinc = 1
# Interface to Monitor: , Inputs: wdata = 0, rdata = 0, winc = 0, rinc = 1
# Interface to Monitor: , Inputs: wdata = 0, rdata = 0, winc = 0, rinc = 1
# Interface to Monitor: , Inputs: wdata = 0, rdata = 0, winc = 0, rinc = 1
# Interface to Monitor: , Inputs: wdata = 0, rdata = 0, winc = 0, rinc = 1
# Interface to Monitor: , Inputs: wdata = 0, rdata = 0, winc = 0, rinc = 1
# Interface to Monitor: , Inputs: wdata = 0, rdata = 0, winc = 0, rinc = 1
# Interface to Monitor: , Inputs: wdata = 0, rdata = 0, winc = 0, rinc = 1
# Interface to Monitor: , Inputs: wdata = 0, rdata = 0, winc = 0, rinc = 1
# Interface to Monitor: , Inputs: wdata = 0, rdata = 0, winc = 0, rinc = 1
# Interface to Monitor: , Inputs: wdata = 0, rdata = 0, winc = 0, rinc = 1
# Interface to Monitor: , Inputs: wdata = 0, rdata = 0, winc = 0, rinc = 1
# Interface to Monitor: , Inputs: wdata = 0, rdata = 0, winc = 0, rinc = 1
# Interface to Monitor: , Inputs: wdata = 0, rdata = 0, winc = 0, rinc = 1
# Interface to Monitor: , Inputs: wdata = 0, rdata = 0, winc = 0, rinc = 1
# Interface to Monitor: , Inputs: wdata = 0, rdata = 0, winc = 0, rinc = 1
# Interface to Monitor: , Inputs: wdata = 0, rdata = 0, winc = 0, rinc = 1
# Interface to Monitor: , Inputs: wdata = 0, rdata = 0, winc = 0, rinc = 1
# Interface to Monitor: , Inputs: wdata = 0, rdata = 0, winc = 0, rinc = 1
# Interface to Monitor: , Inputs: wdata = 0, rdata = 0, winc = 0, rinc = 1
# Interface to Monitor: , Inputs: wdata = 0, rdata = 0, winc = 0, rinc = 1
# Interface to Monitor: , Inputs: wdata = 0, rdata = 0, winc = 0, rinc = 1
# Interface to Monitor: , Inputs: wdata = 0, rdata = 0, winc = 0, rinc = 1
# Interface to Monitor: , Inputs: wdata = 0, rdata = 0, winc = 0, rinc = 1
# Interface to Monitor: , Inputs: wdata = 0, rdata = 0, winc = 0, rinc = 1
# Interface to Monitor: , Inputs: wdata = 0, rdata = 0, winc = 0, rinc = 1
# Interface to Monitor: , Inputs: wdata = 0, rdata = 0, winc = 0, rinc = 1
# Interface to Monitor: , Inputs: wdata = 0, rdata = 0, winc = 0, rinc = 1
# Interface to Monitor: , Inputs: wdata = 0, rdata = 0, winc = 0, rinc = 1
# Interface to Monitor: , Inputs: wdata = 0, rdata = 0, winc = 0, rinc = 1
# Interface to Monitor: , Inputs: wdata = 0, rdata = 0, winc = 0, rinc = 1
# Interface to Monitor: , Inputs: wdata = 0, rdata = 0, winc = 0, rinc = 1
# Interface to Monitor: , Inputs: wdata = 0, rdata = 0, winc = 0, rinc = 1
# Interface to Monitor: , Inputs: wdata = 0, rdata = 0, winc = 0, rinc = 1
# Interface to Monitor: , Inputs: wdata = 0, rdata = 0, winc = 0, rinc = 1
# Interface to Monitor: , Inputs: wdata = 0, rdata = 0, winc = 0, rinc = 1
# Interface to Monitor: , Inputs: wdata = 0, rdata = 0, winc = 0, rinc = 1
# Interface to Monitor: , Inputs: wdata = 0, rdata = 0, winc = 0, rinc = 1
# Interface to Monitor: , Inputs: wdata = 0, rdata = 0, winc = 0, rinc = 1
# Interface to Monitor: , Inputs: wdata = 0, rdata = 0, winc = 0, rinc = 1
# Interface to Monitor: , Inputs: wdata = 0, rdata = 0, winc = 0, rinc = 1
# Interface to Monitor: , Inputs: wdata = 0, rdata = 0, winc = 0, rinc = 1
# Interface to Monitor: , Inputs: wdata = 0, rdata = 0, winc = 0, rinc = 1
# Interface to Monitor: , Inputs: wdata = 0, rdata = 0, winc = 0, rinc = 1
# Interface to Monitor: , Inputs: wdata = 0, rdata = 0, winc = 0, rinc = 1
# Interface to Monitor: , Inputs: wdata = 0, rdata = 0, winc = 0, rinc = 1
# Interface to Monitor: , Inputs: wdata = 0, rdata = 0, winc = 0, rinc = 1
# Interface to Monitor: , Inputs: wdata = 0, rdata = 0, winc = 0, rinc = 1
# Interface to Monitor: , Inputs: wdata = 0, rdata = 0, winc = 0, rinc = 1
# Interface to Monitor: , Inputs: wdata = 0, rdata = 0, winc = 0, rinc = 1
# Interface to Monitor: , Inputs: wdata = 0, rdata = 0, winc = 0, rinc = 1
# Interface to Monitor: , Inputs: wdata = 0, rdata = 0, winc = 0, rinc = 1
# Interface to Monitor: , Inputs: wdata = 0, rdata = 0, winc = 0, rinc = 1
# Interface to Monitor: , Inputs: wdata = 0, rdata = 0, winc = 0, rinc = 1
# Interface to Monitor: , Inputs: wdata = 0, rdata = 0, winc = 0, rinc = 1
# Interface to Monitor: , Inputs: wdata = 0, rdata = 0, winc = 0, rinc = 1
# Interface to Monitor: , Inputs: wdata = 0, rdata = 0, winc = 0, rinc = 1
# Interface to Monitor: , Inputs: wdata = 0, rdata = 0, winc = 0, rinc = 1
# Interface to Monitor: , Inputs: wdata = 0, rdata = 0, winc = 0, rinc = 1
# Interface to Monitor: , Inputs: wdata = 0, rdata = 0, winc = 0, rinc = 1
# Interface to Monitor: , Inputs: wdata = 0, rdata = 0, winc = 0, rinc = 1
# Interface to Monitor: , Inputs: wdata = 0, rdata = 0, winc = 0, rinc = 1
# Interface to Monitor: , Inputs: wdata = 0, rdata = 0, winc = 0, rinc = 1
# Interface to Monitor: , Inputs: wdata = 0, rdata = 0, winc = 0, rinc = 1
# Interface to Monitor: , Inputs: wdata = 0, rdata = 0, winc = 0, rinc = 1
# Interface to Monitor: , Inputs: wdata = 0, rdata = 0, winc = 0, rinc = 1
# ** Note: $finish    : ../TOP/async_fifo_top.sv(96)
#    Time: 5117648 ps  Iteration: 0  Instance: /async_fifo_top
# Saving coverage database on exit...
# End time: 18:27:29 on Feb 18,2025, Elapsed time: 0:00:01
# Errors: 0, Warnings: 0
